$date
  Mon Jul 11 20:06:51 2022
$end
$version
  GHDL v0
$end
$timescale
  1 fs
$end
$scope module standard $end
$upscope $end
$scope module std_logic_1164 $end
$upscope $end
$scope module std_logic_arith $end
$upscope $end
$scope module std_logic_unsigned $end
$upscope $end
$scope module numeric_std $end
$upscope $end
$scope module up $end
$upscope $end
$scope module textio $end
$upscope $end
$scope module std_logic_textio $end
$upscope $end
$scope module numeric_bit $end
$upscope $end
$scope module std_logic_signed $end
$upscope $end
$scope module math_real $end
$upscope $end
$scope module math_complex $end
$upscope $end
$scope module testbench $end
$var reg 1 ! clk $end
$var reg 1 " reset $end
$var reg 1 # opfetch $end
$var reg 1 $ wr $end
$var reg 1 % rd $end
$var reg 16 & addressbus[15:0] $end
$var reg 16 ' databus[15:0] $end
$scope module clock_gen $end
$var reg 1 ( clk $end
$upscope $end
$scope module reset_gen $end
$var reg 1 ) reset $end
$upscope $end
$scope module processor $end
$var reg 1 * clk $end
$var reg 1 + reset $end
$var reg 1 , opfetch $end
$var reg 1 - int $end
$var reg 1 . inta $end
$var reg 1 / wr $end
$var reg 1 0 rd $end
$var reg 16 1 a[15:0] $end
$var reg 16 2 d[15:0] $end
$var reg 1 3 pcen $end
$var reg 1 4 aen $end
$var reg 1 5 den $end
$var reg 1 6 dir $end
$var reg 1 7 spload $end
$var reg 1 8 irload $end
$var reg 1 9 pcload $end
$var reg 2 : psel[1:0] $end
$var reg 2 ; ssel[1:0] $end
$var reg 2 < rsel[1:0] $end
$var reg 2 = osel[1:0] $end
$var reg 5 > ir[4:0] $end
$var reg 1 ? we $end
$var reg 1 @ rae $end
$var reg 1 A rbe $end
$var reg 5 B alusel[4:0] $end
$var reg 1 C zero $end
$var reg 1 D sub2 $end
$var reg 1 E jmpmux $end
$scope module cu $end
$var reg 1 F clk $end
$var reg 1 G reset $end
$var reg 1 H pcen $end
$var reg 1 I den $end
$var reg 1 J dir $end
$var reg 1 K aen $end
$var reg 1 L spload $end
$var reg 1 M pcload $end
$var reg 1 N irload $end
$var reg 2 O psel[1:0] $end
$var reg 2 P ssel[1:0] $end
$var reg 2 Q rsel[1:0] $end
$var reg 2 R osel[1:0] $end
$var reg 1 S sub2 $end
$var reg 1 T jmpmux $end
$var reg 1 U opfetch $end
$var reg 5 V ir[4:0] $end
$var reg 1 W zero $end
$var reg 5 X alusel[4:0] $end
$var reg 1 Y we $end
$var reg 1 Z rae $end
$var reg 1 [ rbe $end
$var reg 1 \ int $end
$var reg 1 ] inta $end
$var reg 1 ^ wr $end
$var reg 1 _ rd $end
$comment state is not handled $end
$var reg 1 ` zero_flag $end
$upscope $end
$scope module dp $end
$var reg 1 a clk $end
$var reg 1 b reset $end
$var reg 1 c pcen $end
$var reg 1 d den $end
$var reg 1 e dir $end
$var reg 1 f aen $end
$var reg 1 g spload $end
$var reg 1 h pcload $end
$var reg 1 i irload $end
$var reg 2 j psel[1:0] $end
$var reg 2 k ssel[1:0] $end
$var reg 2 l rsel[1:0] $end
$var reg 2 m osel[1:0] $end
$var reg 1 n sub2 $end
$var reg 1 o jmpmux $end
$var reg 5 p ir[4:0] $end
$var reg 1 q zero $end
$var reg 5 r alusel[4:0] $end
$var reg 1 s we $end
$var reg 1 t rae $end
$var reg 1 u rbe $end
$var reg 16 v buf2_out[15:0] $end
$var reg 16 w buf3_out[15:0] $end
$var reg 16 x alu_out[15:0] $end
$var reg 16 y pc_out[15:0] $end
$var reg 16 z ir_out[15:0] $end
$var reg 16 { sp_out[15:0] $end
$var reg 16 | pm_out[15:0] $end
$var reg 16 } p_out[15:0] $end
$var reg 16 !" add1_out[15:0] $end
$var reg 16 "" add2_out[15:0] $end
$var reg 16 #" o_out[15:0] $end
$var reg 16 $" s_out[15:0] $end
$var reg 16 %" r_out[15:0] $end
$var reg 16 &" ra[15:0] $end
$var reg 16 '" rb[15:0] $end
$var reg 16 (" int_in[15:0] $end
$var reg 16 )" pc_in[15:0] $end
$var reg 1 *" sub1 $end
$var reg 16 +" pm_in[15:0] $end
$scope module pcx $end
$var reg 16 ," d[15:0] $end
$var reg 1 -" ld $end
$var reg 1 ." clr $end
$var reg 1 /" clk $end
$var reg 16 0" q[15:0] $end
$upscope $end
$scope module irx $end
$var reg 16 1" d[15:0] $end
$var reg 1 2" ld $end
$var reg 1 3" clr $end
$var reg 1 4" clk $end
$var reg 16 5" q[15:0] $end
$upscope $end
$scope module spx $end
$var reg 16 6" d[15:0] $end
$var reg 1 7" ld $end
$var reg 1 8" clr $end
$var reg 1 9" clk $end
$var reg 16 :" q[15:0] $end
$upscope $end
$scope module pmux4 $end
$var reg 2 ;" s[1:0] $end
$var reg 16 <" x0[15:0] $end
$var reg 16 =" x1[15:0] $end
$var reg 16 >" x2[15:0] $end
$var reg 16 ?" x3[15:0] $end
$var reg 16 @" y[15:0] $end
$upscope $end
$scope module rmux4 $end
$var reg 2 A" s[1:0] $end
$var reg 16 B" x0[15:0] $end
$var reg 16 C" x1[15:0] $end
$var reg 16 D" x2[15:0] $end
$var reg 16 E" x3[15:0] $end
$var reg 16 F" y[15:0] $end
$upscope $end
$scope module smux4 $end
$var reg 2 G" s[1:0] $end
$var reg 16 H" x0[15:0] $end
$var reg 16 I" x1[15:0] $end
$var reg 16 J" x2[15:0] $end
$var reg 16 K" x3[15:0] $end
$var reg 16 L" y[15:0] $end
$upscope $end
$scope module omux4 $end
$var reg 2 M" s[1:0] $end
$var reg 16 N" x0[15:0] $end
$var reg 16 O" x1[15:0] $end
$var reg 16 P" x2[15:0] $end
$var reg 16 Q" x3[15:0] $end
$var reg 16 R" y[15:0] $end
$upscope $end
$scope module pmux2 $end
$var reg 1 S" s $end
$var reg 16 T" x0[15:0] $end
$var reg 16 U" x1[15:0] $end
$var reg 16 V" y[15:0] $end
$upscope $end
$scope module regf $end
$var reg 1 W" clk $end
$var reg 1 X" reset $end
$var reg 1 Y" we $end
$var reg 3 Z" wa[2:0] $end
$var reg 16 [" d[15:0] $end
$var reg 1 \" rbe $end
$var reg 1 ]" rae $end
$var reg 3 ^" raa[2:0] $end
$var reg 3 _" rba[2:0] $end
$var reg 16 `" porta[15:0] $end
$var reg 16 a" portb[15:0] $end
$comment rf is not handled $end
$upscope $end
$scope module alux $end
$var reg 5 b" s[4:0] $end
$var reg 16 c" a[15:0] $end
$var reg 16 d" b[15:0] $end
$var reg 16 e" f[15:0] $end
$var reg 1 f" zero $end
$var reg 16 g" x[15:0] $end
$var reg 16 h" y[15:0] $end
$var reg 16 i" shiftinput[15:0] $end
$var reg 1 j" c0 $end
$upscope $end
$scope module buf1x $end
$var reg 1 k" enable $end
$var reg 16 l" input[15:0] $end
$var reg 16 m" output[15:0] $end
$upscope $end
$scope module buf2x $end
$var reg 1 n" enable $end
$var reg 16 o" input[15:0] $end
$var reg 16 p" output[15:0] $end
$upscope $end
$scope module buf3x $end
$var reg 1 q" enable $end
$var reg 1 r" direction $end
$var reg 16 s" input[15:0] $end
$var reg 16 t" output[15:0] $end
$upscope $end
$scope module addsub1 $end
$var reg 1 u" sub $end
$var reg 16 v" in1[15:0] $end
$var reg 16 w" in2[15:0] $end
$var reg 16 x" output[15:0] $end
$upscope $end
$scope module addsub2 $end
$var reg 1 y" sub $end
$var reg 16 z" in1[15:0] $end
$var reg 16 {" in2[15:0] $end
$var reg 16 |" output[15:0] $end
$upscope $end
$upscope $end
$upscope $end
$scope module rom $end
$var reg 1 }" cs $end
$var reg 1 !# oe $end
$var reg 10 "# addr[9:0] $end
$var reg 16 ## data[15:0] $end
$upscope $end
$scope module ram $end
$var reg 1 $# rst $end
$var reg 1 %# cs $end
$var reg 1 &# wr $end
$var reg 1 '# rd $end
$var reg 10 (# addr[9:0] $end
$var reg 16 )# data[15:0] $end
$comment ram is not handled $end
$upscope $end
$upscope $end
$enddefinitions $end
#0
0!
1"
Z#
Z$
Z%
bZZZZZZZZZZZZZZZZ &
bZZZZZZZZZZZZZZZZ '
0(
1)
0*
1+
Z,
0-
U.
Z/
Z0
bZZZZZZZZZZZZZZZZ 1
bZZZZZZZZZZZZZZZZ 2
03
04
05
06
07
08
09
bXX :
bXX ;
bXX <
bXX =
b00000 >
0?
0@
0A
bXXXXX B
UC
XD
XE
0F
1G
0H
0I
0J
0K
0L
0M
0N
bXX O
bXX P
bXX Q
bXX R
XS
XT
ZU
b00000 V
UW
bXXXXX X
0Y
0Z
0[
0\
U]
Z^
Z_
U`
0a
1b
0c
0d
0e
0f
0g
0h
0i
bXX j
bXX k
bXX l
bXX m
Xn
Xo
b00000 p
Uq
bXXXXX r
0s
0t
0u
bZZZZZZZZZZZZZZZZ v
bZZZZZZZZZZZZZZZZ w
bZZZZZZZZZZZZZZZZ x
b0000000000000000 y
b0000000000000000 z
b0000000000000000 {
bXXXXXXXXXXXXXXXX |
bXXXXXXXXXXXXXXXX }
bXXXXXXXXXXXXXXXX !"
bZZZZZZZZZZZZZZZZ ""
bXXXXXXXXXXXXXXXX #"
bXXXXXXXXXXXXXXXX $"
bXXXXXXXXXXXXXXXX %"
bZZZZZZZZZZZZZZZZ &"
bZZZZZZZZZZZZZZZZ '"
b0000000000001111 ("
b0000000000000000 )"
0*"
b0000000000000000 +"
bXXXXXXXXXXXXXXXX ,"
0-"
1."
0/"
b0000000000000000 0"
bZZZZZZZZZZZZZZZZ 1"
02"
13"
04"
b0000000000000000 5"
bXXXXXXXXXXXXXXXX 6"
07"
18"
09"
b0000000000000000 :"
bXX ;"
b0000000000001111 <"
b0000000000001111 ="
bZZZZZZZZZZZZZZZZ >"
bXXXXXXXXXXXXXXXX ?"
bXXXXXXXXXXXXXXXX @"
bXX A"
bZZZZZZZZZZZZZZZZ B"
b0000000000000000 C"
bZZZZZZZZZZZZZZZZ D"
b0000000000000000 E"
bXXXXXXXXXXXXXXXX F"
bXX G"
b0000000000000000 H"
b0000000000000000 I"
bZZZZZZZZZZZZZZZZ J"
bZZZZZZZZZZZZZZZZ K"
bXXXXXXXXXXXXXXXX L"
bXX M"
b0000000000000000 N"
b0000000000000000 O"
b0000000000000000 P"
bZZZZZZZZZZZZZZZZ Q"
bXXXXXXXXXXXXXXXX R"
XS"
b0000000000000001 T"
b0000000000000000 U"
bXXXXXXXXXXXXXXXX V"
0W"
1X"
0Y"
b000 Z"
bZZZZZZZZZZZZZZZZ ["
0\"
0]"
b000 ^"
b000 _"
bZZZZZZZZZZZZZZZZ `"
bZZZZZZZZZZZZZZZZ a"
bXXXXX b"
bXXXXXXXXXXXXXXXX c"
bZZZZZZZZZZZZZZZZ d"
bZZZZZZZZZZZZZZZZ e"
Uf"
bUUUUUUUUUUUUUUUU g"
bUUUUUUUUUUUUUUUU h"
bUUUUUUUUUUUUUUUU i"
Uj"
0k"
b0000000000000000 l"
bZZZZZZZZZZZZZZZZ m"
0n"
bXXXXXXXXXXXXXXXX o"
bZZZZZZZZZZZZZZZZ p"
0q"
0r"
bZZZZZZZZZZZZZZZZ s"
bZZZZZZZZZZZZZZZZ t"
0u"
b0000000000000000 v"
bXXXXXXXXXXXXXXXX w"
bXXXXXXXXXXXXXXXX x"
Xy"
b0000000000000000 z"
b0000000000000001 {"
bZZZZZZZZZZZZZZZZ |"
0}"
Z!#
bZZZZZZZZZZ "#
bZZZZZZZZZZZZZZZZ ##
1$#
0%#
Z&#
Z'#
bZZZZZZZZZZ (#
bZZZZZZZZZZZZZZZZ )#
#250000000
1!
1(
1*
1F
1a
1/"
14"
19"
1W"
#500000000
0!
0(
0*
0F
0a
0/"
04"
09"
0W"
#750000000
1!
1(
1*
1F
1a
1/"
14"
19"
1W"
#1000000000
0!
0"
0(
0)
0*
0+
0F
0G
0a
0b
0."
0/"
03"
04"
08"
09"
0W"
0X"
0$#
#1250000000
1!
1(
1*
1F
1a
1/"
14"
19"
1W"
#1251000000
b0000000000000000 &
U.
b0000000000000000 1
14
15
18
19
b11 :
b00 ;
b00 =
0E
1I
1K
1M
1N
b11 O
b00 P
b00 R
0T
U]
1d
1f
1h
1i
b11 j
b00 k
b00 m
0o
b0000000000000000 v
b0000000000000001 |
b0000000000000001 }
b0000000000000001 !"
b0000000000000000 #"
b0000000000000000 $"
b0000000000000001 ,"
1-"
12"
b0000000000000000 6"
b11 ;"
b0000000000000001 ?"
b0000000000000001 @"
b00 G"
b0000000000000000 L"
b00 M"
b0000000000000000 R"
0S"
b0000000000000001 V"
bZZZZZZZZZZZZZZZZ a"
bZZZZZZZZZZZZZZZZ m"
1n"
b0000000000000000 o"
b0000000000000000 p"
1q"
b0000000000000001 w"
b0000000000000001 x"
b0000000000 "#
bZZZZZZZZZZZZZZZZ ##
b0000000000 (#
#1253000000
1#
1,
1U
1!#
#1263000000
b0011000000000000 '
b0011000000000000 2
b0011000000000000 w
b0011000000000000 '"
b0011000000000000 1"
b0011000000000000 >"
b0011000000000000 D"
b0011000000000000 a"
b0011000000000000 d"
b0011000000000000 m"
b0011000000000000 s"
b0011000000000000 t"
b0011000000000000 ##
b0011000000000000 )#
#1500000000
0!
0(
0*
0F
0a
0/"
04"
09"
0W"
#1750000000
1!
b0000000000000001 &
1(
1*
b0000000000000001 1
b00110 >
1F
b00110 V
1a
b00110 p
b0000000000000001 v
b0000000000000001 y
b0011000000000000 z
b0000000000000010 }
b0000000000000010 !"
b0000000000000001 #"
b0000000000000010 ,"
1/"
b0000000000000001 0"
14"
b0011000000000000 5"
19"
b0000000000000010 ?"
b0000000000000010 @"
b0000000000000001 N"
b0000000000000001 R"
1W"
b0000000000000001 l"
b0011000000000000 m"
b0000000000000001 o"
b0000000000000001 p"
b0000000000000001 v"
b0000000000000010 x"
b0000000001 "#
b0011000000000000 ##
b0000000001 (#
#1751000000
0#
bZZZZZZZZZZZZZZZZ &
bZZZZZZZZZZZZZZZZ '
0,
U.
bZZZZZZZZZZZZZZZZ 1
bZZZZZZZZZZZZZZZZ 2
04
05
08
09
bXX :
b11 ;
bXX =
0D
0I
0K
0M
0N
bXX O
b11 P
bXX R
0S
0U
U]
0d
0f
0h
0i
bXX j
b11 k
bXX m
0n
bZZZZZZZZZZZZZZZZ v
bZZZZZZZZZZZZZZZZ w
bXXXXXXXXXXXXXXXX }
b0000000000000001 ""
bXXXXXXXXXXXXXXXX #"
b0000000000000001 $"
bZZZZZZZZZZZZZZZZ '"
bXXXXXXXXXXXXXXXX ,"
0-"
bZZZZZZZZZZZZZZZZ 1"
02"
b0000000000000001 6"
bXX ;"
bZZZZZZZZZZZZZZZZ >"
bXXXXXXXXXXXXXXXX @"
bZZZZZZZZZZZZZZZZ D"
b11 G"
b0000000000000001 K"
b0000000000000001 L"
bXX M"
bXXXXXXXXXXXXXXXX R"
bZZZZZZZZZZZZZZZZ a"
bZZZZZZZZZZZZZZZZ d"
bZZZZZZZZZZZZZZZZ m"
0n"
bXXXXXXXXXXXXXXXX o"
bZZZZZZZZZZZZZZZZ p"
0q"
bZZZZZZZZZZZZZZZZ s"
bZZZZZZZZZZZZZZZZ t"
0y"
b0000000000000001 |"
0!#
bZZZZZZZZZZ "#
bZZZZZZZZZZZZZZZZ ##
bZZZZZZZZZZ (#
bZZZZZZZZZZZZZZZZ )#
#2000000000
0!
0(
0*
0F
0a
0/"
04"
09"
0W"
#2001000000
U.
bXX ;
XD
bXX P
XS
U]
bXX k
Xn
bZZZZZZZZZZZZZZZZ ""
bXXXXXXXXXXXXXXXX $"
bXXXXXXXXXXXXXXXX 6"
bXX G"
bZZZZZZZZZZZZZZZZ K"
bXXXXXXXXXXXXXXXX L"
Xy"
bZZZZZZZZZZZZZZZZ |"
#2250000000
1!
1(
1*
1F
1a
1/"
14"
19"
1W"
#2251000000
U.
15
16
b11 :
b00 ;
b00 <
b00 =
1?
1@
b00110 B
1I
1J
b11 O
b00 P
b00 Q
b00 R
b00110 X
1Y
1Z
U]
1d
1e
b11 j
b00 k
b00 l
b00 m
b00110 r
1s
1t
b0000000000000010 }
b0000000000000001 #"
b0000000000000000 $"
b0000000000000000 %"
b0000000000000000 &"
b0000000000000010 ,"
b0000000000000000 6"
b11 ;"
b0000000000000010 @"
b00 A"
b0000000000000000 B"
b0000000000000000 F"
b00 G"
b0000000000000000 J"
b0000000000000000 L"
b00 M"
b0000000000000000 Q"
b0000000000000001 R"
1Y"
1]"
b0000000000000000 `"
b00110 b"
b0000000000000000 c"
bZZZZZZZZZZZZZZZZ m"
b0000000000000001 o"
1q"
1r"
bZZZZZZZZZZZZZZZZ ##
#2500000000
0!
0(
0*
0F
0a
0/"
04"
09"
0W"
#2750000000
1!
1(
1*
1F
1a
1/"
14"
19"
1W"
#2751000000
b0000000000000001 &
U.
b0000000000000001 1
14
06
18
19
bXX <
0?
0@
bXXXXX B
0J
1K
1M
1N
bXX Q
bXXXXX X
0Y
0Z
U]
0`
0e
1f
1h
1i
bXX l
bXXXXX r
0s
0t
b0000000000000001 v
bXXXXXXXXXXXXXXXX %"
bZZZZZZZZZZZZZZZZ &"
1-"
12"
bXX A"
bZZZZZZZZZZZZZZZZ B"
bXXXXXXXXXXXXXXXX F"
bZZZZZZZZZZZZZZZZ J"
bZZZZZZZZZZZZZZZZ Q"
0Y"
0]"
bZZZZZZZZZZZZZZZZ `"
bZZZZZZZZZZZZZZZZ a"
bXXXXX b"
bXXXXXXXXXXXXXXXX c"
bZZZZZZZZZZZZZZZZ m"
1n"
b0000000000000001 p"
0r"
b0000000001 "#
bZZZZZZZZZZZZZZZZ ##
b0000000001 (#
#2753000000
1#
1,
1U
1!#
#2763000000
b0011000100100000 '
b0011000100100000 2
b0011000100100000 w
b0011000100100000 '"
b0011000100100000 1"
b0011000100100000 >"
b0011000100100000 D"
b0011000100100000 a"
b0011000100100000 d"
b0011000100100000 m"
b0011000100100000 s"
b0011000100100000 t"
b0011000100100000 ##
b0011000100100000 )#
#3000000000
0!
0(
0*
0F
0a
0/"
04"
09"
0W"
#3250000000
1!
b0000000000000010 &
1(
1*
b0000000000000010 1
1F
1a
b0000000000000010 v
b0000000000000010 y
b0011000100100000 z
b0000000000000011 }
b0000000000000011 !"
b0000000000000010 #"
b0000000000100000 )"
b0000000100100000 +"
b0000000000000011 ,"
1/"
b0000000000000010 0"
14"
b0011000100100000 5"
19"
b0000000000000011 ?"
b0000000000000011 @"
b0000000000100000 E"
b0000000000000010 N"
b0000000000000010 R"
b0000000100100000 U"
1W"
b001 Z"
b001 ^"
b0000000000000010 l"
b0011000100100000 m"
b0000000000000010 o"
b0000000000000010 p"
b0000000000000010 v"
b0000000000000011 x"
b0000000010 "#
b0011000100100000 ##
b0000000010 (#
#3251000000
0#
bZZZZZZZZZZZZZZZZ &
bZZZZZZZZZZZZZZZZ '
0,
U.
bZZZZZZZZZZZZZZZZ 1
bZZZZZZZZZZZZZZZZ 2
04
05
08
09
bXX :
b11 ;
bXX =
0D
0I
0K
0M
0N
bXX O
b11 P
bXX R
0S
0U
U]
0d
0f
0h
0i
bXX j
b11 k
bXX m
0n
bZZZZZZZZZZZZZZZZ v
bZZZZZZZZZZZZZZZZ w
bXXXXXXXXXXXXXXXX }
b0000000000000001 ""
bXXXXXXXXXXXXXXXX #"
b0000000000000001 $"
bZZZZZZZZZZZZZZZZ '"
bXXXXXXXXXXXXXXXX ,"
0-"
bZZZZZZZZZZZZZZZZ 1"
02"
b0000000000000001 6"
bXX ;"
bZZZZZZZZZZZZZZZZ >"
bXXXXXXXXXXXXXXXX @"
bZZZZZZZZZZZZZZZZ D"
b11 G"
b0000000000000001 K"
b0000000000000001 L"
bXX M"
bXXXXXXXXXXXXXXXX R"
bZZZZZZZZZZZZZZZZ a"
bZZZZZZZZZZZZZZZZ d"
bZZZZZZZZZZZZZZZZ m"
0n"
bXXXXXXXXXXXXXXXX o"
bZZZZZZZZZZZZZZZZ p"
0q"
bZZZZZZZZZZZZZZZZ s"
bZZZZZZZZZZZZZZZZ t"
0y"
b0000000000000001 |"
0!#
bZZZZZZZZZZ "#
bZZZZZZZZZZZZZZZZ ##
bZZZZZZZZZZ (#
bZZZZZZZZZZZZZZZZ )#
#3500000000
0!
0(
0*
0F
0a
0/"
04"
09"
0W"
#3501000000
U.
bXX ;
XD
bXX P
XS
U]
bXX k
Xn
bZZZZZZZZZZZZZZZZ ""
bXXXXXXXXXXXXXXXX $"
bXXXXXXXXXXXXXXXX 6"
bXX G"
bZZZZZZZZZZZZZZZZ K"
bXXXXXXXXXXXXXXXX L"
Xy"
bZZZZZZZZZZZZZZZZ |"
#3750000000
1!
1(
1*
1F
1a
1/"
14"
19"
1W"
#3751000000
U.
15
16
b11 :
b00 ;
b00 <
b00 =
1?
1@
b00110 B
1I
1J
b11 O
b00 P
b00 Q
b00 R
b00110 X
1Y
1Z
U]
1d
1e
b11 j
b00 k
b00 l
b00 m
b00110 r
1s
1t
b0000000000000011 }
b0000000000000010 #"
b0000000000000000 $"
b0000000000000000 %"
b0000000000000000 &"
b0000000000000011 ,"
b0000000000000000 6"
b11 ;"
b0000000000000011 @"
b00 A"
b0000000000000000 B"
b0000000000000000 F"
b00 G"
b0000000000000000 J"
b0000000000000000 L"
b00 M"
b0000000000000000 Q"
b0000000000000010 R"
1Y"
1]"
b0000000000000000 `"
b00110 b"
b0000000000000000 c"
bZZZZZZZZZZZZZZZZ m"
b0000000000000010 o"
1q"
1r"
bZZZZZZZZZZZZZZZZ ##
#4000000000
0!
0(
0*
0F
0a
0/"
04"
09"
0W"
#4250000000
1!
1(
1*
1F
1a
1/"
14"
19"
1W"
#4251000000
b0000000000000010 &
U.
b0000000000000010 1
14
06
18
19
bXX <
0?
0@
bXXXXX B
0J
1K
1M
1N
bXX Q
bXXXXX X
0Y
0Z
U]
0e
1f
1h
1i
bXX l
bXXXXX r
0s
0t
b0000000000000010 v
bXXXXXXXXXXXXXXXX %"
bZZZZZZZZZZZZZZZZ &"
1-"
12"
bXX A"
bZZZZZZZZZZZZZZZZ B"
bXXXXXXXXXXXXXXXX F"
bZZZZZZZZZZZZZZZZ J"
bZZZZZZZZZZZZZZZZ Q"
0Y"
0]"
bZZZZZZZZZZZZZZZZ `"
bZZZZZZZZZZZZZZZZ a"
bXXXXX b"
bXXXXXXXXXXXXXXXX c"
bZZZZZZZZZZZZZZZZ m"
1n"
b0000000000000010 p"
0r"
b0000000010 "#
bZZZZZZZZZZZZZZZZ ##
b0000000010 (#
#4253000000
1#
1,
1U
1!#
#4263000000
b0000101000000100 '
b0000101000000100 2
b0000101000000100 w
b0000101000000100 '"
b0000101000000100 1"
b0000101000000100 >"
b0000101000000100 D"
b0000101000000100 a"
b0000101000000100 d"
b0000101000000100 m"
b0000101000000100 s"
b0000101000000100 t"
b0000101000000100 ##
b0000101000000100 )#
#4500000000
0!
0(
0*
0F
0a
0/"
04"
09"
0W"
#4750000000
1!
b0000000000000011 &
1(
1*
b0000000000000011 1
b00001 >
1F
b00001 V
1a
b00001 p
b0000000000000011 v
b0000000000000011 y
b0000101000000100 z
b0000000000000100 }
b0000000000000100 !"
b0000000000000011 #"
b0000000001001111 ("
b0000000000000100 )"
b0000001000000100 +"
b0000000000000100 ,"
1/"
b0000000000000011 0"
14"
b0000101000000100 5"
19"
b0000000001001111 <"
b0000000001001111 ="
b0000000000000100 ?"
b0000000000000100 @"
b0000000000000100 E"
b0000000000000011 N"
b0000000000000011 R"
b0000001000000100 U"
1W"
b010 Z"
b000 ^"
b001 _"
b0000101000000100 a"
b0000000000000011 l"
b0000101000000100 m"
b0000000000000011 o"
b0000000000000011 p"
b0000000000000011 v"
b0000000000000100 x"
b0000000011 "#
b0000101000000100 ##
b0000000011 (#
#4751000000
0#
bZZZZZZZZZZZZZZZZ &
bZZZZZZZZZZZZZZZZ '
0,
U.
bZZZZZZZZZZZZZZZZ 1
bZZZZZZZZZZZZZZZZ 2
04
05
08
09
bXX :
b11 ;
bXX =
0D
0I
0K
0M
0N
bXX O
b11 P
bXX R
0S
0U
U]
0d
0f
0h
0i
bXX j
b11 k
bXX m
0n
bZZZZZZZZZZZZZZZZ v
bZZZZZZZZZZZZZZZZ w
bXXXXXXXXXXXXXXXX }
b0000000000000001 ""
bXXXXXXXXXXXXXXXX #"
b0000000000000001 $"
bZZZZZZZZZZZZZZZZ '"
bXXXXXXXXXXXXXXXX ,"
0-"
bZZZZZZZZZZZZZZZZ 1"
02"
b0000000000000001 6"
bXX ;"
bZZZZZZZZZZZZZZZZ >"
bXXXXXXXXXXXXXXXX @"
bZZZZZZZZZZZZZZZZ D"
b11 G"
b0000000000000001 K"
b0000000000000001 L"
bXX M"
bXXXXXXXXXXXXXXXX R"
bZZZZZZZZZZZZZZZZ a"
bZZZZZZZZZZZZZZZZ d"
bZZZZZZZZZZZZZZZZ m"
0n"
bXXXXXXXXXXXXXXXX o"
bZZZZZZZZZZZZZZZZ p"
0q"
bZZZZZZZZZZZZZZZZ s"
bZZZZZZZZZZZZZZZZ t"
0y"
b0000000000000001 |"
0!#
bZZZZZZZZZZ "#
bZZZZZZZZZZZZZZZZ ##
bZZZZZZZZZZ (#
bZZZZZZZZZZZZZZZZ )#
#5000000000
0!
0(
0*
0F
0a
0/"
04"
09"
0W"
#5001000000
U.
bXX ;
XD
bXX P
XS
U]
bXX k
Xn
bZZZZZZZZZZZZZZZZ ""
bXXXXXXXXXXXXXXXX $"
bXXXXXXXXXXXXXXXX 6"
bXX G"
bZZZZZZZZZZZZZZZZ K"
bXXXXXXXXXXXXXXXX L"
Xy"
bZZZZZZZZZZZZZZZZ |"
#5250000000
1!
1(
1*
1F
1a
1/"
14"
19"
1W"
#5251000000
U.
b11 :
b00 ;
b00 <
b00 =
1?
1@
1A
b00100 B
0C
b11 O
b00 P
b00 Q
b00 R
0W
b00100 X
1Y
1Z
1[
U]
b11 j
b00 k
b00 l
b00 m
0q
b00100 r
1s
1t
1u
bXXXXXXXXXXXXXXXX x
b0000000000000100 }
b0000000000000011 #"
b0000000000000000 $"
bZZZZZZZZZZZZZZZZ %"
b0000000000000100 ,"
b0000000000000000 6"
b11 ;"
b0000000000000100 @"
b00 A"
bZZZZZZZZZZZZZZZZ F"
b00 G"
b0000000000000000 L"
b00 M"
b0000000000000011 R"
1Y"
bXXXXXXXXXXXXXXXX ["
1\"
1]"
bZZZZZZZZZZZZZZZZ a"
b00100 b"
bZZZZZZZZZZZZZZZZ c"
bXXXXXXXXXXXXXXXX e"
b0000000000000011 o"
#5500000000
0!
0(
0*
0F
0a
0/"
04"
09"
0W"
#5750000000
1!
1(
1*
1F
1a
1/"
14"
19"
1W"
#5751000000
b0000000000000011 &
U.
b0000000000000011 1
14
15
18
19
bXX <
0?
0@
0A
bXXXXX B
1I
1K
1M
1N
bXX Q
bXXXXX X
0Y
0Z
0[
U]
1d
1f
1h
1i
bXX l
bXXXXX r
0s
0t
0u
b0000000000000011 v
bZZZZZZZZZZZZZZZZ x
bXXXXXXXXXXXXXXXX %"
1-"
12"
bXX A"
bXXXXXXXXXXXXXXXX F"
0Y"
bZZZZZZZZZZZZZZZZ ["
0\"
0]"
bZZZZZZZZZZZZZZZZ a"
bXXXXX b"
bXXXXXXXXXXXXXXXX c"
bZZZZZZZZZZZZZZZZ e"
bZZZZZZZZZZZZZZZZ m"
1n"
b0000000000000011 p"
1q"
b0000000011 "#
bZZZZZZZZZZZZZZZZ ##
b0000000011 (#
#5753000000
1#
1,
1U
1!#
#5763000000
b1000100000000000 '
b1000100000000000 2
b1000100000000000 w
b1000100000000000 '"
b1000100000000000 1"
b1000100000000000 >"
b1000100000000000 D"
b1000100000000000 a"
b1000100000000000 d"
b1000100000000000 m"
b1000100000000000 s"
b1000100000000000 t"
b1000100000000000 ##
b1000100000000000 )#
#6000000000
0!
0(
0*
0F
0a
0/"
04"
09"
0W"
#6250000000
1!
b0000000000000100 &
1(
1*
b0000000000000100 1
b10001 >
1F
b10001 V
1a
b10001 p
b0000000000000100 v
b0000000000000100 y
b1000100000000000 z
b0000000000000101 }
b0000000000000101 !"
b0000000000000100 #"
b0000000000001111 ("
b0000000000000000 )"
b0000000000000000 +"
b0000000000000101 ,"
1/"
b0000000000000100 0"
14"
b1000100000000000 5"
19"
b0000000000001111 <"
b0000000000001111 ="
b0000000000000101 ?"
b0000000000000101 @"
b0000000000000000 E"
b0000000000000100 N"
b0000000000000100 R"
b0000000000000000 U"
1W"
b000 Z"
b000 _"
b1000100000000000 a"
b0000000000000100 l"
b1000100000000000 m"
b0000000000000100 o"
b0000000000000100 p"
b0000000000000100 v"
b0000000000000101 x"
b0000000100 "#
b1000100000000000 ##
b0000000100 (#
#6251000000
0#
bZZZZZZZZZZZZZZZZ &
bZZZZZZZZZZZZZZZZ '
0,
U.
bZZZZZZZZZZZZZZZZ 1
bZZZZZZZZZZZZZZZZ 2
04
05
08
09
bXX :
b11 ;
bXX =
0D
0I
0K
0M
0N
bXX O
b11 P
bXX R
0S
0U
U]
0d
0f
0h
0i
bXX j
b11 k
bXX m
0n
bZZZZZZZZZZZZZZZZ v
bZZZZZZZZZZZZZZZZ w
bXXXXXXXXXXXXXXXX }
b0000000000000001 ""
bXXXXXXXXXXXXXXXX #"
b0000000000000001 $"
bZZZZZZZZZZZZZZZZ '"
bXXXXXXXXXXXXXXXX ,"
0-"
bZZZZZZZZZZZZZZZZ 1"
02"
b0000000000000001 6"
bXX ;"
bZZZZZZZZZZZZZZZZ >"
bXXXXXXXXXXXXXXXX @"
bZZZZZZZZZZZZZZZZ D"
b11 G"
b0000000000000001 K"
b0000000000000001 L"
bXX M"
bXXXXXXXXXXXXXXXX R"
bZZZZZZZZZZZZZZZZ a"
bZZZZZZZZZZZZZZZZ d"
bZZZZZZZZZZZZZZZZ m"
0n"
bXXXXXXXXXXXXXXXX o"
bZZZZZZZZZZZZZZZZ p"
0q"
bZZZZZZZZZZZZZZZZ s"
bZZZZZZZZZZZZZZZZ t"
0y"
b0000000000000001 |"
0!#
bZZZZZZZZZZ "#
bZZZZZZZZZZZZZZZZ ##
bZZZZZZZZZZ (#
bZZZZZZZZZZZZZZZZ )#
#6500000000
0!
0(
0*
0F
0a
0/"
04"
09"
0W"
#6501000000
U.
bXX ;
XD
bXX P
XS
U]
bXX k
Xn
bZZZZZZZZZZZZZZZZ ""
bXXXXXXXXXXXXXXXX $"
bXXXXXXXXXXXXXXXX 6"
bXX G"
bZZZZZZZZZZZZZZZZ K"
bXXXXXXXXXXXXXXXX L"
Xy"
bZZZZZZZZZZZZZZZZ |"
#6750000000
1!
1(
1*
1F
1a
1/"
14"
19"
1W"
#6751000000
X#
X$
X%
X,
U.
X/
X0
X3
X4
X5
X6
X7
X8
X9
X?
X@
XA
XE
XH
XI
XJ
XK
XL
XM
XN
XT
XU
XY
XZ
X[
U]
X^
X_
Xc
Xd
Xe
Xf
Xg
Xh
Xi
Xo
Xs
Xt
Xu
bXXXXXXXXXXXXXXXX |
bXXXXXXXXXXXXXXXX !"
X-"
X2"
X7"
bXXXXXXXXXXXXXXXX ?"
XS"
bXXXXXXXXXXXXXXXX V"
XY"
X\"
X]"
bZZZZZZZZZZZZZZZZ a"
Xk"
bZZZZZZZZZZZZZZZZ m"
Xn"
Xq"
Xr"
bXXXXXXXXXXXXXXXX w"
bXXXXXXXXXXXXXXXX x"
X!#
bZZZZZZZZZZZZZZZZ ##
X&#
X'#
#7000000000
0!
0(
0*
0F
0a
0/"
04"
09"
0W"
#7250000000
1!
1(
1*
1F
1a
1/"
14"
19"
1W"
#7251000000
#7500000000
0!
0(
0*
0F
0a
0/"
04"
09"
0W"
#7750000000
1!
1(
1*
1F
1a
1/"
14"
19"
1W"
#7751000000
#8000000000
0!
0(
0*
0F
0a
0/"
04"
09"
0W"
