$date
  Thu Jun  9 21:42:31 2022
$end
$version
  GHDL v0
$end
$timescale
  1 fs
$end
$scope module standard $end
$upscope $end
$scope module std_logic_1164 $end
$upscope $end
$scope module std_logic_arith $end
$upscope $end
$scope module std_logic_unsigned $end
$upscope $end
$scope module testbench $end
$var reg 2 ! input[1:0] $end
$var reg 1 " output $end
$scope module uut $end
$var reg 1 # a $end
$var reg 1 $ b $end
$var reg 1 % o $end
$var reg 1 & w $end
$scope module pmos1 $end
$var reg 1 ' p_out $end
$var reg 1 ( p_in $end
$var reg 1 ) p_gate $end
$upscope $end
$scope module pmos2 $end
$var reg 1 * p_out $end
$var reg 1 + p_in $end
$var reg 1 , p_gate $end
$upscope $end
$scope module nmos1 $end
$var reg 1 - p_out $end
$var reg 1 . p_in $end
$var reg 1 / p_gate $end
$upscope $end
$scope module nmos2 $end
$var reg 1 0 p_out $end
$var reg 1 1 p_in $end
$var reg 1 2 p_gate $end
$upscope $end
$upscope $end
$upscope $end
$enddefinitions $end
#0
b00 !
U"
0#
0$
U%
U&
U'
1(
0)
U*
1+
0,
U-
U.
0/
U0
01
02
#10000000
1"
1%
Z&
1'
1*
1-
Z.
Z0
#20000000
1%
1'
1*
1-
#100000000
b01 !
1#
1)
1/
#110000000
1%
1'
1*
1-
#200000000
b10 !
0#
1$
0)
1,
0/
12
#210000000
1%
0&
1'
1*
1-
0.
00
#220000000
1%
1'
1*
1-
#400000000
b11 !
1#
1)
1/
#410000000
0"
0%
0'
0*
0-
#600000000
